<!-- Generator: Adobe Illustrator 19.0.0, SVG Export Plug-In  -->
<svg version="1.1"
	 xmlns="http://www.w3.org/2000/svg" xmlns:xlink="http://www.w3.org/1999/xlink" xmlns:a="http://ns.adobe.com/AdobeSVGViewerExtensions/3.0/"
	 x="0px" y="0px" width="20.7px" height="18px" viewBox="0 0 20.7 18" style="enable-background:new 0 0 20.7 18;"
	 xml:space="preserve">
<style type="text/css">
	.st0{fill:none;stroke:#ffffff;stroke-width:3;stroke-linecap:round;stroke-miterlimit:10;}
</style>
<defs>
</defs>
<g>
	<polyline class="st0" points="10.3,1.5 2.2,9.3 10.3,16.5 	"/>
	<line class="st0" x1="2.2" y1="9.3" x2="19.2" y2="9.3"/>
</g>
</svg>

